4ano/[AAD] Arquitetura Alto Desempenho/HAD_T1G6/COD/simulation/qsim/COD-serial.msim.vcd
$comment
	File created using the following command:
		vcd file COD-serial.msim.vcd -direction
$end
$date
	Wed Nov 16 10:13:48 2022
$end
$version
	ModelSim Version 2020.1
$end
$timescale
	1ps
$end

$scope module serial_encoder_vhd_vec_tst $end
$var wire 1 ! clk $end
$var wire 1 " m $end
$var wire 1 # rstGr $end
$var wire 1 $ Y [7] $end
$var wire 1 % Y [6] $end
$var wire 1 & Y [5] $end
$var wire 1 ' Y [4] $end
$var wire 1 ( Y [3] $end
$var wire 1 ) Y [2] $end
$var wire 1 * Y [1] $end
$var wire 1 + Y [0] $end

$scope module i1 $end
$var wire 1 , gnd $end
$var wire 1 - vcc $end
$var wire 1 . unknown $end
$var wire 1 / devoe $end
$var wire 1 0 devclrn $end
$var wire 1 1 devpor $end
$var wire 1 2 ww_devoe $end
$var wire 1 3 ww_devclrn $end
$var wire 1 4 ww_devpor $end
$var wire 1 5 ww_clk $end
$var wire 1 6 ww_rstGr $end
$var wire 1 7 ww_m $end
$var wire 1 8 ww_Y [7] $end
$var wire 1 9 ww_Y [6] $end
$var wire 1 : ww_Y [5] $end
$var wire 1 ; ww_Y [4] $end
$var wire 1 < ww_Y [3] $end
$var wire 1 = ww_Y [2] $end
$var wire 1 > ww_Y [1] $end
$var wire 1 ? ww_Y [0] $end
$var wire 1 @ \clk~inputclkctrl_INCLK_bus\ [3] $end
$var wire 1 A \clk~inputclkctrl_INCLK_bus\ [2] $end
$var wire 1 B \clk~inputclkctrl_INCLK_bus\ [1] $end
$var wire 1 C \clk~inputclkctrl_INCLK_bus\ [0] $end
$var wire 1 D \Y[0]~output_o\ $end
$var wire 1 E \Y[1]~output_o\ $end
$var wire 1 F \Y[2]~output_o\ $end
$var wire 1 G \Y[3]~output_o\ $end
$var wire 1 H \Y[4]~output_o\ $end
$var wire 1 I \Y[5]~output_o\ $end
$var wire 1 J \Y[6]~output_o\ $end
$var wire 1 K \Y[7]~output_o\ $end
$var wire 1 L \clk~input_o\ $end
$var wire 1 M \clk~inputclkctrl_outclk\ $end
$var wire 1 N \rstGr~input_o\ $end
$var wire 1 O \block_control_unit|Block_Counter|s_count~2_combout\ $end
$var wire 1 P \block_control_unit|Block_Counter|s_count~1_combout\ $end
$var wire 1 Q \block_control_unit|Block_Counter|s_count~0_combout\ $end
$var wire 1 R \m~input_o\ $end
$var wire 1 S \block_ffD|Q~q\ $end
$var wire 1 T \block_control_unit|Block_ROM|Mux8~0_combout\ $end
$var wire 1 U \block_calc_y7|comb~0_combout\ $end
$var wire 1 V \block_calc_y0|Block1_flipFlopD|Q~0_combout\ $end
$var wire 1 W \block_calc_y0|Block1_flipFlopD|Q~q\ $end
$var wire 1 X \block_calc_y0|BLOCK_AND|Y~combout\ $end
$var wire 1 Y \block_calc_y1|mi_and_kx|Y~0_combout\ $end
$var wire 1 Z \block_calc_y1|Block1_flipFlopD|Q~0_combout\ $end
$var wire 1 [ \block_calc_y1|Block1_flipFlopD|Q~q\ $end
$var wire 1 \ \block_calc_y1|BLOCK_AND|Y~combout\ $end
$var wire 1 ] \block_calc_y2|mi_and_kx|Y~0_combout\ $end
$var wire 1 ^ \block_calc_y2|Block1_flipFlopD|Q~0_combout\ $end
$var wire 1 _ \block_calc_y2|Block1_flipFlopD|Q~q\ $end
$var wire 1 ` \block_calc_y2|BLOCK_AND|Y~combout\ $end
$var wire 1 a \block_calc_y3|mi_and_kx|Y~0_combout\ $end
$var wire 1 b \block_calc_y3|Block1_flipFlopD|Q~0_combout\ $end
$var wire 1 c \block_calc_y3|Block1_flipFlopD|Q~q\ $end
$var wire 1 d \block_calc_y3|BLOCK_AND|Y~combout\ $end
$var wire 1 e \block_calc_y4|mi_and_kx|Y~0_combout\ $end
$var wire 1 f \block_calc_y4|Block1_flipFlopD|Q~0_combout\ $end
$var wire 1 g \block_calc_y4|Block1_flipFlopD|Q~q\ $end
$var wire 1 h \block_calc_y4|BLOCK_AND|Y~combout\ $end
$var wire 1 i \block_calc_y5|mi_and_kx|Y~0_combout\ $end
$var wire 1 j \block_calc_y5|Block1_flipFlopD|Q~0_combout\ $end
$var wire 1 k \block_calc_y5|Block1_flipFlopD|Q~q\ $end
$var wire 1 l \block_calc_y5|BLOCK_AND|Y~combout\ $end
$var wire 1 m \block_calc_y6|mi_and_kx|Y~0_combout\ $end
$var wire 1 n \block_calc_y6|Block1_flipFlopD|Q~0_combout\ $end
$var wire 1 o \block_calc_y6|Block1_flipFlopD|Q~q\ $end
$var wire 1 p \block_calc_y6|BLOCK_AND|Y~combout\ $end
$var wire 1 q \block_calc_y7|mi_and_kx|Y~0_combout\ $end
$var wire 1 r \block_calc_y7|Block1_flipFlopD|Q~0_combout\ $end
$var wire 1 s \block_calc_y7|Block1_flipFlopD|Q~q\ $end
$var wire 1 t \block_calc_y7|BLOCK_AND|Y~combout\ $end
$var wire 1 u \block_control_unit|Block_Counter|s_count\ [2] $end
$var wire 1 v \block_control_unit|Block_Counter|s_count\ [1] $end
$var wire 1 w \block_control_unit|Block_Counter|s_count\ [0] $end
$upscope $end
$upscope $end
$enddefinitions $end
#0
$dumpvars
0!
0"
1#
0,
1-
x.
1/
10
11
12
13
14
05
16
07
0D
0E
0F
0G
0H
0I
0J
0K
0L
0M
1N
0O
0P
0Q
0R
0S
0T
0U
0V
0W
0X
0Y
0Z
0[
0\
0]
0^
0_
0`
0a
0b
0c
0d
0e
0f
0g
0h
0i
0j
0k
0l
0m
0n
0o
0p
0q
0r
0s
0t
0$
0%
0&
0'
0(
0)
0*
0+
08
09
0:
0;
0<
0=
0>
0?
0u
0v
0w
1@
1A
1B
0C
$end
#40000
1!
15
1L
1C
1M
#60000
0#
06
0N
1P
#80000
0!
05
0L
0C
0M
#120000
1!
15
1L
1C
1M
1w
1O
0P
1T
1U
#160000
0!
05
0L
0C
0M
#180000
1"
17
1R
#200000
1!
15
1L
1C
1M
1v
0w
1S
1V
1P
1Y
1e
1i
1j
1f
1Z
#230000
0"
07
0R
#240000
0!
05
0L
0C
0M
#280000
1!
15
1L
1C
1M
1w
0S
1W
1[
1g
1k
0j
0f
0Z
0O
0P
1Q
0Y
0e
0i
1j
1f
1Z
#320000
0!
05
0L
0C
0M
#350000
1"
17
1R
#360000
1!
15
1L
1C
1M
0v
0w
1u
1S
0V
0Q
0U
1Y
1]
1a
1e
1i
1m
1q
0Z
1^
1b
0f
0j
1n
1r
#380000
0"
07
0R
#400000
0!
05
0L
0C
0M
#440000
1!
15
1L
1C
1M
0u
0S
0W
0[
1_
1c
0g
0k
1o
1s
0r
0n
1j
1f
0b
0^
1Z
1P
0T
0Y
0]
1`
0a
1d
0e
0i
0m
1p
0q
1t
0Z
0f
0j
1K
1J
1G
1F
18
19
1<
1=
1)
1(
1%
1$
#480000
0!
05
0L
0C
0M
#520000
1!
15
1L
1C
1M
1w
0_
0c
0o
0s
1O
0P
1T
1U
0`
0d
0p
0t
0K
0J
0G
0F
08
09
0<
0=
0)
0(
0%
0$
#560000
0!
05
0L
0C
0M
#600000
1!
15
1L
1C
1M
1v
0w
1P
#640000
0!
05
0L
0C
0M
#680000
1!
1"
15
17
1R
1L
1C
1M
1w
1S
1V
0O
0P
1Q
1Y
1]
1a
1b
1^
1Z
#720000
0!
05
0L
0C
0M
#760000
1!
0"
15
07
0R
1L
1C
1M
0v
0w
1u
0S
1W
1[
1_
1c
0b
0^
0Z
0Q
0U
0Y
0]
0a
1Z
1^
1b
#800000
0!
05
0L
0C
0M
#840000
1!
15
1L
1C
1M
0u
1P
0T
1X
1\
1`
1d
0V
0Z
0^
0b
1G
1F
1E
1D
1<
1=
1>
1?
1+
1*
1)
1(
#880000
0!
05
0L
0C
0M
#920000
1!
15
1L
1C
1M
1w
0W
0[
0_
0c
1O
0P
1T
1U
0X
0\
0`
0d
0G
0F
0E
0D
0<
0=
0>
0?
0+
0*
0)
0(
#960000
0!
05
0L
0C
0M
#1000000
1!
15
1L
1C
1M
1v
0w
1P
#1040000
0!
05
0L
0C
0M
#1080000
1!
1"
15
17
1R
1L
1C
1M
1w
1S
1V
0O
0P
1Q
1Y
1]
1a
1b
1^
1Z
#1120000
0!
05
0L
0C
0M
#1160000
1!
0"
15
07
0R
1L
1C
1M
0v
0w
1u
0S
1W
1[
1_
1c
0b
0^
0Z
0Q
0U
0Y
0]
0a
1Z
1^
1b
#1200000
0!
05
0L
0C
0M
#1240000
1!
15
1L
1C
1M
0u
1P
0T
1X
1\
1`
1d
0V
0Z
0^
0b
1G
1F
1E
1D
1<
1=
1>
1?
1+
1*
1)
1(
#1280000
0!
05
0L
0C
0M
#1320000
1!
15
1L
1C
1M
1w
0W
0[
0_
0c
1O
0P
1T
1U
0X
0\
0`
0d
0G
0F
0E
0D
0<
0=
0>
0?
0+
0*
0)
0(
#1360000
0!
1"
05
17
1R
0L
0C
0M
#1400000
1!
15
1L
1C
1M
1v
0w
1S
1V
1P
1Y
1e
1i
1j
1f
1Z
#1440000
0!
05
0L
0C
0M
#1480000
1!
15
1L
1C
1M
1w
1W
1[
1g
1k
0j
0f
0Z
0V
0O
0P
1Q
1]
1a
0e
0i
1j
1f
1b
1^
#1520000
0!
05
0L
0C
0M
#1560000
1!
0"
15
07
0R
1L
1C
1M
0v
0w
1u
0S
0W
0[
1_
1c
0b
0^
1Z
0Q
0U
0Y
0]
0a
0Z
1^
1b
#1600000
0!
05
0L
0C
0M
#1640000
1!
1"
15
17
1R
1L
1C
1M
0u
1S
1V
1P
0T
1`
1d
1h
1l
0V
0^
0b
0f
0j
1I
1H
1G
1F
1:
1;
1<
1=
1)
1(
1'
1&
#1680000
0!
05
0L
0C
0M
#1720000
1!
1#
15
16
1N
1L
1C
0P
1M
0_
0c
0g
0k
0l
0h
0d
0`
0F
0G
0H
0I
0=
0<
0;
0:
0)
0(
0'
0&
#1760000
0!
05
0L
0C
0M
#1800000
1!
0#
15
06
0N
1L
1C
1P
1M
1w
1O
0P
1T
1U
1]
1e
1m
1V
1^
1f
1n
#1840000
0!
05
0L
0C
0M
#1880000
1!
15
1L
1C
1M
1v
0w
1W
1_
1g
1o
0n
0f
0^
0V
1P
1Y
0]
1i
0m
1n
1j
1^
1Z
#1920000
0!
05
0L
0C
0M
#1960000
1!
0"
15
07
0R
1L
1C
1M
1w
0S
0W
1[
0g
1k
0j
1f
0Z
0O
0P
1Q
0Y
0e
0i
1j
0f
1Z
#2000000
0!
05
0L
0C
0M
#2040000
1!
15
1L
1C
1M
0v
0w
1u
0Q
0U
#2080000
0!
05
0L
0C
0M
#2120000
1!
1"
15
17
1R
1L
1C
1M
0u
1S
1V
1P
0T
1\
1`
1l
1p
0V
0Z
0^
0j
0n
1J
1I
1F
1E
19
1:
1=
1>
1*
1)
1&
1%
#2160000
0!
05
0L
0C
0M
#2200000
1!
15
1L
1C
1M
1w
0[
0_
0k
0o
1O
0P
1T
1U
0\
1]
0`
1e
0l
1m
0p
1V
1^
1f
1n
0J
0I
0F
0E
09
0:
0=
0>
0*
0)
0&
0%
#2240000
0!
05
0L
0C
0M
#2280000
1!
15
1L
1C
1M
1v
0w
1W
1_
1g
1o
0n
0f
0^
0V
1P
1Y
0]
1i
0m
1n
1j
1^
1Z
#2320000
0!
05
0L
0C
0M
#2360000
1!
15
1L
1C
1M
1w
0W
1[
0g
1k
0j
1f
0Z
1V
0O
0P
1Q
1]
1a
0e
0i
1j
0f
1b
0^
#2400000
0!
05
0L
0C
0M
#2440000
1!
0"
15
07
0R
1L
1C
1M
0v
0w
1u
0S
1W
0[
0_
1c
0b
1^
1Z
0Q
0U
0Y
0]
0a
0Z
0^
1b
#2480000
0!
05
0L
0C
0M
#2520000
1!
1"
15
17
1R
1L
1C
1M
0u
1S
0V
1P
0T
1X
1d
1l
1p
0b
0j
0n
1J
1I
1G
1D
19
1:
1<
1?
1+
1(
1&
1%
#2560000
0!
05
0L
0C
0M
#2600000
1!
0"
15
07
0R
1L
1C
1M
1w
0S
0W
0c
0k
0o
1O
0P
1T
1U
0X
0d
0l
0p
0J
0I
0G
0D
09
0:
0<
0?
0+
0(
0&
0%
#2640000
0!
05
0L
0C
0M
#2680000
1!
15
1L
1C
1M
1v
0w
1P
#2720000
0!
05
0L
0C
0M
#2760000
1!
1"
15
17
1R
1L
1C
1M
1w
1S
1V
0O
0P
1Q
1Y
1]
1a
1b
1^
1Z
#2800000
0!
05
0L
0C
0M
#2840000
1!
0"
15
07
0R
1L
1C
1M
0v
0w
1u
0S
1W
1[
1_
1c
0b
0^
0Z
0Q
0U
0Y
0]
0a
1Z
1^
1b
#2880000
0!
05
0L
0C
0M
#2920000
1!
15
1L
1C
1M
0u
1P
0T
1X
1\
1`
1d
0V
0Z
0^
0b
1G
1F
1E
1D
1<
1=
1>
1?
1+
1*
1)
1(
#2960000
0!
05
0L
0C
0M
#3000000
1!
15
1L
1C
1M
1w
0W
0[
0_
0c
1O
0P
1T
1U
0X
0\
0`
0d
0G
0F
0E
0D
0<
0=
0>
0?
0+
0*
0)
0(
#3040000
0!
05
0L
0C
0M
#3080000
1!
15
1L
1C
1M
1v
0w
1P
#3120000
0!
05
0L
0C
0M
#3160000
1!
15
1L
1C
1M
1w
0O
0P
1Q
#3200000
0!
05
0L
0C
0M
#3240000
1!
15
1L
1C
1M
0v
0w
1u
0Q
0U
#3280000
0!
05
0L
0C
0M
#3320000
1!
15
1L
1C
1M
0u
1P
0T
#3360000
0!
05
0L
0C
0M
#3400000
1!
15
1L
1C
1M
1w
1O
0P
1T
1U
#3440000
0!
05
0L
0C
0M
#3480000
1!
15
1L
1C
1M
1v
0w
1P
#3520000
0!
05
0L
0C
0M
#3560000
1!
15
1L
1C
1M
1w
0O
0P
1Q
#3600000
0!
05
0L
0C
0M
#3640000
1!
15
1L
1C
1M
0v
0w
1u
0Q
0U
#3680000
0!
05
0L
0C
0M
#3720000
1!
15
1L
1C
1M
0u
1P
0T
#3760000
0!
05
0L
0C
0M
#3800000
1!
15
1L
1C
1M
1w
1O
0P
1T
1U
#3840000
0!
05
0L
0C
0M
#3880000
1!
15
1L
1C
1M
1v
0w
1P
#3920000
0!
05
0L
0C
0M
#3960000
1!
15
1L
1C
1M
1w
0O
0P
1Q
#4000000
0!
05
0L
0C
0M
#4040000
1!
15
1L
1C
1M
0v
0w
1u
0Q
0U
#4080000
0!
05
0L
0C
0M
#4120000
1!
15
1L
1C
1M
0u
1P
0T
#4160000
0!
05
0L
0C
0M
#4200000
1!
15
1L
1C
1M
1w
1O
0P
1T
1U
#4240000
0!
05
0L
0C
0M
#4280000
1!
15
1L
1C
1M
1v
0w
1P
#4320000
0!
05
0L
0C
0M
#4360000
1!
15
1L
1C
1M
1w
0O
0P
1Q
#4400000
0!
05
0L
0C
0M
#4440000
1!
15
1L
1C
1M
0v
0w
1u
0Q
0U
#4480000
0!
05
0L
0C
0M
#4520000
1!
15
1L
1C
1M
0u
1P
0T
#4560000
0!
05
0L
0C
0M
#4600000
1!
15
1L
1C
1M
1w
1O
0P
1T
1U
#4640000
0!
05
0L
0C
0M
#4680000
1!
15
1L
1C
1M
1v
0w
1P
#4720000
0!
05
0L
0C
0M
#4760000
1!
15
1L
1C
1M
1w
0O
0P
1Q
#4800000
0!
05
0L
0C
0M
#4840000
1!
15
1L
1C
1M
0v
0w
1u
0Q
0U
#4880000
0!
05
0L
0C
0M
#4920000
1!
15
1L
1C
1M
0u
1P
0T
#4960000
0!
05
0L
0C
0M
#5000000
1!
15
1L
1C
1M
1w
1O
0P
1T
1U
#5040000
0!
05
0L
0C
0M
#5080000
1!
15
1L
1C
1M
1v
0w
1P
#5120000
0!
05
0L
0C
0M
#5160000
1!
15
1L
1C
1M
1w
0O
0P
1Q
#5200000
0!
05
0L
0C
0M
#5240000
1!
15
1L
1C
1M
0v
0w
1u
0Q
0U
#5280000
0!
05
0L
0C
0M
#5320000
1!
15
1L
1C
1M
0u
1P
0T
#5360000
0!
05
0L
0C
0M
#5400000
1!
15
1L
1C
1M
1w
1O
0P
1T
1U
#5440000
0!
05
0L
0C
0M
#5480000
1!
15
1L
1C
1M
1v
0w
1P
#5520000
0!
05
0L
0C
0M
#5560000
1!
15
1L
1C
1M
1w
0O
0P
1Q
#5600000
0!
05
0L
0C
0M
#5640000
1!
15
1L
1C
1M
0v
0w
1u
0Q
0U
#5680000
0!
05
0L
0C
0M
#5720000
1!
15
1L
1C
1M
0u
1P
0T
#5760000
0!
05
0L
0C
0M
#5800000
1!
15
1L
1C
1M
1w
1O
0P
1T
1U
#5840000
0!
05
0L
0C
0M
#5880000
1!
15
1L
1C
1M
1v
0w
1P
#5920000
0!
05
0L
0C
0M
#5960000
1!
15
1L
1C
1M
1w
0O
0P
1Q
#6000000
0!
05
0L
0C
0M
#6040000
1!
15
1L
1C
1M
0v
0w
1u
0Q
0U
#6080000
0!
05
0L
0C
0M
#6120000
1!
15
1L
1C
1M
0u
1P
0T
#6160000
0!
05
0L
0C
0M
#6200000
1!
15
1L
1C
1M
1w
1O
0P
1T
1U
#6240000
0!
05
0L
0C
0M
#6280000
1!
15
1L
1C
1M
1v
0w
1P
#6320000
0!
05
0L
0C
0M
#6360000
1!
15
1L
1C
1M
1w
0O
0P
1Q
#6400000
0!
05
0L
0C
0M
#6440000
1!
15
1L
1C
1M
0v
0w
1u
0Q
0U
#6480000
0!
05
0L
0C
0M
#6520000
1!
15
1L
1C
1M
0u
1P
0T
#6560000
0!
05
0L
0C
0M
#6600000
1!
15
1L
1C
1M
1w
1O
0P
1T
1U
#6640000
0!
05
0L
0C
0M
#6680000
1!
15
1L
1C
1M
1v
0w
1P
#6720000
0!
05
0L
0C
0M
#6760000
1!
15
1L
1C
1M
1w
0O
0P
1Q
#6800000
0!
05
0L
0C
0M
#6840000
1!
15
1L
1C
1M
0v
0w
1u
0Q
0U
#6880000
0!
05
0L
0C
0M
#6920000
1!
15
1L
1C
1M
0u
1P
0T
#6960000
0!
05
0L
0C
0M
#7000000
1!
15
1L
1C
1M
1w
1O
0P
1T
1U
#7040000
0!
05
0L
0C
0M
#7080000
1!
15
1L
1C
1M
1v
0w
1P
#7120000
0!
05
0L
0C
0M
#7160000
1!
15
1L
1C
1M
1w
0O
0P
1Q
#7200000
0!
05
0L
0C
0M
#7240000
1!
15
1L
1C
1M
0v
0w
1u
0Q
0U
#7280000
0!
05
0L
0C
0M
#7320000
1!
15
1L
1C
1M
0u
1P
0T
#7360000
0!
05
0L
0C
0M
#7400000
1!
15
1L
1C
1M
1w
1O
0P
1T
1U
#7440000
0!
05
0L
0C
0M
#7480000
1!
15
1L
1C
1M
1v
0w
1P
#7520000
0!
05
0L
0C
0M
#7560000
1!
15
1L
1C
1M
1w
0O
0P
1Q
#7600000
0!
05
0L
0C
0M
#7640000
1!
15
1L
1C
1M
0v
0w
1u
0Q
0U
#7680000
0!
05
0L
0C
0M
#7720000
1!
15
1L
1C
1M
0u
1P
0T
#7760000
0!
05
0L
0C
0M
#7800000
1!
15
1L
1C
1M
1w
1O
0P
1T
1U
#7840000
0!
05
0L
0C
0M
#7880000
1!
15
1L
1C
1M
1v
0w
1P
#7920000
0!
05
0L
0C
0M
#7960000
1!
15
1L
1C
1M
1w
0O
0P
1Q
#8000000
0!
05
0L
0C
0M
#8040000
1!
15
1L
1C
1M
0v
0w
1u
0Q
0U
#8080000
0!
05
0L
0C
0M
#8120000
1!
15
1L
1C
1M
0u
1P
0T
#8160000
0!
05
0L
0C
0M
#8200000
1!
15
1L
1C
1M
1w
1O
0P
1T
1U
#8240000
0!
05
0L
0C
0M
#8280000
1!
15
1L
1C
1M
1v
0w
1P
#8320000
0!
05
0L
0C
0M
#8360000
1!
15
1L
1C
1M
1w
0O
0P
1Q
#8400000
0!
05
0L
0C
0M
#8440000
1!
15
1L
1C
1M
0v
0w
1u
0Q
0U
#8480000
0!
05
0L
0C
0M
#8520000
1!
15
1L
1C
1M
0u
1P
0T
#8560000
0!
05
0L
0C
0M
#8600000
1!
15
1L
1C
1M
1w
1O
0P
1T
1U
#8640000
0!
05
0L
0C
0M
#8680000
1!
15
1L
1C
1M
1v
0w
1P
#8720000
0!
05
0L
0C
0M
#8760000
1!
15
1L
1C
1M
1w
0O
0P
1Q
#8800000
0!
05
0L
0C
0M
#8840000
1!
15
1L
1C
1M
0v
0w
1u
0Q
0U
#8880000
0!
05
0L
0C
0M
#8920000
1!
15
1L
1C
1M
0u
1P
0T
#8960000
0!
05
0L
0C
0M
#9000000
1!
15
1L
1C
1M
1w
1O
0P
1T
1U
#9040000
0!
05
0L
0C
0M
#9080000
1!
15
1L
1C
1M
1v
0w
1P
#9120000
0!
05
0L
0C
0M
#9160000
1!
15
1L
1C
1M
1w
0O
0P
1Q
#9200000
0!
05
0L
0C
0M
#9240000
1!
15
1L
1C
1M
0v
0w
1u
0Q
0U
#9280000
0!
05
0L
0C
0M
#9320000
1!
15
1L
1C
1M
0u
1P
0T
#9360000
0!
05
0L
0C
0M
#9400000
1!
15
1L
1C
1M
1w
1O
0P
1T
1U
#9440000
0!
05
0L
0C
0M
#9480000
1!
15
1L
1C
1M
1v
0w
1P
#9520000
0!
05
0L
0C
0M
#9560000
1!
15
1L
1C
1M
1w
0O
0P
1Q
#9600000
0!
05
0L
0C
0M
#9640000
1!
15
1L
1C
1M
0v
0w
1u
0Q
0U
#9680000
0!
05
0L
0C
0M
#9720000
1!
15
1L
1C
1M
0u
1P
0T
#9760000
0!
05
0L
0C
0M
#9800000
1!
15
1L
1C
1M
1w
1O
0P
1T
1U
#9840000
0!
05
0L
0C
0M
#9880000
1!
15
1L
1C
1M
1v
0w
1P
#9920000
0!
05
0L
0C
0M
#9960000
1!
15
1L
1C
1M
1w
0O
0P
1Q
