1ano/[LSD] Laboratórios Sistemas Digitais/Fase3/simulation/qsim/ProcessadorCompleto.msim.vcd
$comment
	File created using the following command:
		vcd file ProcessadorCompleto.msim.vcd -direction
$end
$date
	Sun May 24 22:54:47 2020
$end
$version
	ModelSim Version 10.5b
$end
$timescale
	1ps
$end

$scope module pc_vhd_vec_tst $end
$var wire 1 ! clk $end
$var wire 1 " cntOut [2] $end
$var wire 1 # cntOut [1] $end
$var wire 1 $ cntOut [0] $end
$var wire 1 % En $end
$var wire 1 & reset $end

$scope module i1 $end
$var wire 1 ' gnd $end
$var wire 1 ( vcc $end
$var wire 1 ) unknown $end
$var wire 1 * devoe $end
$var wire 1 + devclrn $end
$var wire 1 , devpor $end
$var wire 1 - ww_devoe $end
$var wire 1 . ww_devclrn $end
$var wire 1 / ww_devpor $end
$var wire 1 0 ww_reset $end
$var wire 1 1 ww_clk $end
$var wire 1 2 ww_En $end
$var wire 1 3 ww_cntOut [2] $end
$var wire 1 4 ww_cntOut [1] $end
$var wire 1 5 ww_cntOut [0] $end
$var wire 1 6 \cntOut[0]~output_o\ $end
$var wire 1 7 \cntOut[1]~output_o\ $end
$var wire 1 8 \cntOut[2]~output_o\ $end
$var wire 1 9 \clk~input_o\ $end
$var wire 1 : \reset~input_o\ $end
$var wire 1 ; \cntValue[1]~1_combout\ $end
$var wire 1 < \En~input_o\ $end
$var wire 1 = \cntValue[2]~2_combout\ $end
$var wire 1 > \cntValue[2]~3_combout\ $end
$var wire 1 ? \process_0~0_combout\ $end
$var wire 1 @ \cntValue[0]~0_combout\ $end
$var wire 1 A cntValue [2] $end
$var wire 1 B cntValue [1] $end
$var wire 1 C cntValue [0] $end
$upscope $end
$upscope $end
$enddefinitions $end
#0
$dumpvars
0!
0%
1&
0'
1(
x)
1*
1+
1,
1-
1.
1/
10
01
02
06
07
08
09
1:
0;
0<
0=
0>
1?
0@
03
04
05
0A
0B
0C
0"
0#
0$
$end
#12500
1!
11
19
#25000
0!
01
09
#37500
1!
11
19
#50000
0!
01
09
#62500
1!
11
19
#70000
0&
00
0:
#75000
0!
01
09
#87500
1!
11
19
#100000
0!
01
09
#112500
1!
11
19
#125000
0!
01
09
#137500
1!
11
19
#150000
0!
1%
01
12
1<
09
0?
1@
#162500
1!
11
19
1C
1;
0@
16
15
1$
#175000
0!
01
09
#187500
1!
11
19
1B
0C
1@
06
17
05
14
0$
1#
#200000
0!
0%
01
02
0<
09
1?
0@
#212500
1!
11
19
#225000
0!
01
09
#237500
1!
11
19
#250000
0!
01
09
#262500
1!
11
19
#275000
0!
01
09
#287500
1!
11
19
#300000
0!
01
09
#312500
1!
11
19
#325000
0!
01
09
#337500
1!
11
19
#350000
0!
1%
01
12
1<
09
0?
1@
#362500
1!
11
19
1C
0;
1=
0@
1>
16
15
1$
#375000
0!
01
09
#387500
1!
11
19
0B
1A
0C
1@
06
18
07
05
13
04
0$
0#
1"
#400000
0!
0%
01
02
0<
09
1?
0@
#412500
1!
11
19
#425000
0!
01
09
#437500
1!
11
19
#450000
0!
01
09
#462500
1!
11
19
#475000
0!
01
09
#487500
1!
11
19
#500000
0!
01
09
#512500
1!
11
19
#525000
0!
01
09
#537500
1!
11
19
#550000
0!
1%
01
12
1<
09
0?
1@
#562500
1!
11
19
1C
1;
0@
16
15
1$
#575000
0!
01
09
#587500
1!
11
19
1B
0C
1@
06
17
05
14
0$
1#
#600000
0!
0%
01
02
0<
09
1?
0@
#612500
1!
11
19
#625000
0!
01
09
#637500
1!
11
19
#650000
0!
01
09
#662500
1!
11
19
#675000
0!
01
09
#687500
1!
11
19
#700000
0!
01
09
#712500
1!
11
19
#725000
0!
01
09
#737500
1!
11
19
#750000
0!
1%
01
12
1<
09
0?
1@
#762500
1!
11
19
1C
0;
1?
0@
1;
1@
16
15
1$
#775000
0!
01
09
#787500
1!
11
19
#800000
0!
01
09
#812500
1!
11
19
#825000
0!
01
09
#837500
1!
11
19
#850000
0!
01
09
#862500
1!
11
19
#875000
0!
01
09
#887500
1!
11
19
#900000
0!
01
09
#912500
1!
11
19
#925000
0!
01
09
#937500
1!
11
19
#950000
0!
01
09
#962500
1!
11
19
#975000
0!
01
09
#987500
1!
11
19
